\relax 
\providecommand\babel@aux[2]{}
\@nameuse{bbl@beforestart}
\catcode `"\active 
\babel@aux{portuges}{}
\@writefile{toc}{\contentsline {section}{\numberline {1}Introdução}{1}{}\protected@file@percent }
\@writefile{toc}{\contentsline {section}{\numberline {2}Multithreading}{2}{}\protected@file@percent }
\@writefile{lof}{\contentsline {figure}{\numberline {1}{\ignorespaces \textit  {thread}Funcionamento de uma thread}}{2}{}\protected@file@percent }
\newlabel{fig: Funcionamento de}{{1}{2}}
\@writefile{toc}{\contentsline {subsection}{\numberline {2.1}Vantagens}{2}{}\protected@file@percent }
\@writefile{toc}{\contentsline {section}{\numberline {3}Threads em Java}{4}{}\protected@file@percent }
\gdef \@abspage@last{7}
