\babel@toc {portuges}{}
\contentsline {section}{\numberline {1}Introdução}{1}{}%
\contentsline {section}{\numberline {2}Multithreading}{2}{}%
\contentsline {subsection}{\numberline {2.1}Vantagens}{2}{}%
\contentsline {section}{\numberline {3}Threads em Java}{4}{}%
