\babel@toc {portuges}{}
\contentsline {section}{\numberline {1}Introdução}{1}{}%
\contentsline {section}{\numberline {2}Multithreading}{2}{}%
\contentsline {subsection}{\numberline {2.1}Vantagens}{2}{}%
\contentsline {subsection}{\numberline {2.2}Threads em Java}{3}{}%
\contentsline {subsection}{\numberline {2.3}Jantar dos Filósofos}{3}{}%
\contentsline {subsubsection}{\numberline {2.3.1}Aplicado ao Projeto}{4}{}%
\contentsline {section}{\numberline {3}Descrição do Projeto}{5}{}%
\contentsline {subsection}{\numberline {3.1}Objetivos}{5}{}%
\contentsline {subsection}{\numberline {3.2}Estrutura do Programa}{5}{}%
\contentsline {subsection}{\numberline {3.3}Dificuldades Sentidas}{7}{}%
\contentsline {section}{\numberline {4}Conclusões}{7}{}%
\contentsline {section}{\numberline {5}Anexos}{8}{}%
\contentsline {subsection}{\numberline {5.1}Anexo A - Enunciado}{8}{}%
