\relax 
\providecommand\babel@aux[2]{}
\@nameuse{bbl@beforestart}
\catcode `"\active 
\babel@aux{portuges}{}
\@writefile{toc}{\contentsline {section}{\numberline {1}Introdução}{1}{}\protected@file@percent }
\@writefile{toc}{\contentsline {section}{\numberline {2}Multithreading}{2}{}\protected@file@percent }
\@writefile{lof}{\contentsline {figure}{\numberline {1}{\ignorespaces Funcionamento de uma thread}}{2}{}\protected@file@percent }
\newlabel{fig: FuncionamentoThread}{{1}{2}}
\@writefile{toc}{\contentsline {subsection}{\numberline {2.1}Vantagens}{2}{}\protected@file@percent }
\@writefile{toc}{\contentsline {subsection}{\numberline {2.2}Threads em Java}{3}{}\protected@file@percent }
\@writefile{toc}{\contentsline {subsection}{\numberline {2.3}Jantar dos Filósofos}{3}{}\protected@file@percent }
\@writefile{lof}{\contentsline {figure}{\numberline {2}{\ignorespaces Jantar dos Filósofos}}{4}{}\protected@file@percent }
\newlabel{fig: jantarDosFilosofos}{{2}{4}}
\@writefile{toc}{\contentsline {subsubsection}{\numberline {2.3.1}Aplicado ao Projeto}{4}{}\protected@file@percent }
\@writefile{toc}{\contentsline {section}{\numberline {3}Descrição do Projeto}{5}{}\protected@file@percent }
\@writefile{toc}{\contentsline {subsection}{\numberline {3.1}Objetivos}{5}{}\protected@file@percent }
\@writefile{toc}{\contentsline {subsection}{\numberline {3.2}Estrutura do Programa}{5}{}\protected@file@percent }
\@writefile{lof}{\contentsline {figure}{\numberline {3}{\ignorespaces Visitantes a chegar}}{6}{}\protected@file@percent }
\newlabel{shot1}{{3}{6}}
\@writefile{lof}{\contentsline {figure}{\numberline {4}{\ignorespaces Em visita à ilha}}{6}{}\protected@file@percent }
\newlabel{shot2}{{4}{6}}
\@writefile{lof}{\contentsline {figure}{\numberline {5}{\ignorespaces Programa terminado}}{7}{}\protected@file@percent }
\newlabel{shot3}{{5}{7}}
\@writefile{toc}{\contentsline {subsection}{\numberline {3.3}Dificuldades Sentidas}{7}{}\protected@file@percent }
\@writefile{toc}{\contentsline {section}{\numberline {4}Conclusões}{7}{}\protected@file@percent }
\@writefile{toc}{\contentsline {section}{\numberline {5}Anexos}{8}{}\protected@file@percent }
\@writefile{toc}{\contentsline {subsection}{\numberline {5.1}Anexo A - Enunciado}{8}{}\protected@file@percent }
\gdef \@abspage@last{24}
